"Order ID"," Order Item ID"," SKU"," Product Name"," Firstname"," Lastname"," Buyer Name"," Address 1"," Address 2"," Address 3"," Address 4"," Address 5"," Address 6"," Order Value"," Purchase Date"
PAIT202-7547572-48883461,21841105441051,"PIS STRUBRO 1010 100","Packitsafe 100 10x10 inch Brown Paper Bags Strung, Used for Fruit, Vegetables, Sweets and Crafts 1010B 100",Annabel,Croft,"Annabel Croft","BREDE COTTAGE","TROTTS LANE",,WESTERHAM,Kent,"TN16 1SD",4.56,"2019-10-20 09:07:45"
PAIT204-4873192-48235131,39823439010371,"PIS STRUBRO 1010 100","Packitsafe 100 10x10 inch Brown Paper Bags Strung, Used for Fruit, Vegetables, Sweets and Crafts 1010B 100",Mrs,caroline,"Mrs caroline kerry","30 bramblefields",Northallerton,,"North Yorkshire",,DL61ST,4.56,"2019-10-20 09:07:45"
PAIT204-4873192-48235131,39823439010371-1,"PIS - BWS75025","2 ROLLS OF  25m x 750mm Wide Roll Bubble Wrap, Quality Small Bubble for Picking, Packing, Protection, Moving",Mrs,caroline,"Mrs caroline kerry","30 bramblefields",Northallerton,,"North Yorkshire",,DL61ST,2.34,"2019-10-20 09:07:45"
PAIT206-4725980-59499381,24353853743043,"PIS STRUBRO 1010 300","Packitsafe 300 10x10 inch Brown Paper Bags Strung, Used for Fruit, Vegetables, Sweets and Crafts 1010B 300",Emma,Box,"Emma Box",Garth,"Heol Yr Ogof, Aberporth",,CARDIGAN,Dyfed,"SA43 2HH",12.36,"2019-10-20 09:07:45"
