"Campaign Sendout ID","Campaign Name","Material Name","SMS Content Message","Result Status","Date Sent","First Name","Last Name","Customer Name","Email Address","Phone Number","Mobile Number"
137,"Test 9 sdfh lksjfhkl sdlkjfhskl fhsdklfj hdfslkj","Test Material SMS","Welcome to Tristom Labs - please get in touch if you need anything CNFN5",,0000-00-00,Fred,Bloggs,"Test Company",mr_andrew_north@hotmail.com,+441212456456,"0408391826
"
